Amino acid	Molecular weight	Polar requirements	dissociating groups	pKi	Isoelectric point	alpha helix forming ability	Hydropathy	Molecular volume	chemical class
A	89	7	2	2.34	6	1	1.8	31	aliphatic
R	175	9.1	3	2.17	10.76	1	-4.5	124	basic
D	132	13	3	1.88	2.77	1	-3.5	54	acidic
N	132	10	2	2.02	5.41	1	-3.5	56	polar
C	121	4.8	3	1.96	5.07	-1	2.5	55	polar
E	146	12.5	3	2.19	3.22	1	-3.5	83	acidic
Q	146	8.6	2	2.17	5.65	1	-3.5	85	polar
G	75	7.9	2	2.34	5.97	-1	-0.4	3	glycine
H	156	8.4	3	1.82	7.59	1	-3.2	96	basic
I	131	4.9	2	2.36	6.02	-1	4.5	111	aliphatic
L	131	4.9	2	2.36	5.98	1	3.8	111	aliphatic
K	147	10.1	3	2.18	9.74	1	-3.9	119	basic
M	149	5.3	2	2.28	5.74	1	1.9	105	polar
F	165	5	2	1.83	5.48	1	2.8	132	aromatic
P	115	6.6	2	1.99	6.3	-1	-1.6	32.5	proline
S	105	7.5	2	2.21	5.68	-1	-0.8	32	polar
T	119	6.6	2	2.71	6.16	-1	-0.7	61	polar
W	204	5.2	2	2.38	5.89	1	-0.9	170	aromatic
Y	181	5.4	3	2.2	5.66	1	-1.3	136	aromatic
V	117	5.6	2	2.32	5.96	-1	4.2	84	aliphatic
