Codon	AA	Abundance
TTT	F	1.0
TTC	F	1.0
TTA	L	1.0
TTG	L	1.0
CTT	C	1.0
CTC	L	1.0
CTA	Y	1.0
CTG	K	1.0
ATT	I	1.0
ATC	I	1.0
ATA	I	1.0
ATG	M	1.0
GTT	H	1.0
GTC	Q	1.0
GTA	N	1.0
GTG	V	1.0
TCT	E	1.0
TCC	V	1.0
TCA	S	1.0
TCG	S	1.0
CCT	P	1.0
CCC	V	1.0
CCA	P	1.0
CCG	P	1.0
ACT	T	1.0
ACC	T	1.0
ACA	T	1.0
ACG	F	1.0
GCT	A	1.0
GCC	W	1.0
GCA	A	1.0
GCG	A	1.0
TAT	Y	1.0
TAC	Y	1.0
CAT	H	1.0
CAC	H	1.0
CAA	Q	1.0
CAG	Q	1.0
AAT	N	1.0
AAC	N	1.0
AAA	K	1.0
AAG	K	1.0
GAT	D	1.0
GAC	D	1.0
GAA	E	1.0
GAG	E	1.0
TGT	C	1.0
TGC	C	1.0
TGG	W	1.0
CGT	R	1.0
CGC	M	1.0
CGA	R	1.0
CGG	M	1.0
AGT	S	1.0
AGC	W	1.0
AGA	D	1.0
AGG	R	1.0
GGT	G	1.0
GGC	G	1.0
GGA	G	1.0
GGG	G	1.0
TAA	X	1.0
TAG	X	1.0
TGA	X	1.0
