Fitness	Unique AAs	Min Max Codon Ratio	Chemical Diversity Variance
0.0993548364432	0.652094717668	0.264705882353	0.575591985428
0.141021429922	0.661202185792	0.363636363636	0.586520947177
0.173947262245	0.673952641166	0.424242424242	0.608378870674
0.185566736673	0.684881602914	0.4375	0.619307832423
0.205289298974	0.693989071038	0.466666666667	0.633879781421
0.22191126062	0.704918032787	0.48275862069	0.652094717668
0.231720165677	0.712204007286	0.48275862069	0.673952641166
0.240417480252	0.719489981785	0.48275862069	0.692167577413
0.247993594054	0.723132969035	0.48275862069	0.710382513661
0.254355607588	0.726775956284	0.48275862069	0.724954462659
0.260768876016	0.730418943534	0.48275862069	0.739526411658
0.267278247366	0.741347905282	0.48275862069	0.746812386157
0.349553790694	0.746812386157	0.620689655172	0.754098360656
0.40843500851	0.748633879781	0.72	0.757741347905
0.478798411419	0.748633879781	0.84	0.761384335155
0.478798411419	0.748633879781	0.84	0.761384335155
